%YAML 1.1
%TAG !u! tag:unity3d.com,2011:
--- !u!162 &1
EditorUserSettings:
  m_ObjectHideFlags: 0
  serializedVersion: 4
  m_ConfigSettings:
    RecentlyUsedScenePath-0:
      value: 2242470311464676080a05270622532f33190e233e27283d2827097cc1ef263dadd435ece93f2c731d07e2333b0d023afc0f3626f30f030e070ff1313cf0051d05c411cb25984e52de1715dad4
      flags: 0
    RecentlyUsedScenePath-1:
      value: 2242470311464676080a05270622532f33190e233e27283d2827097ccfe53031e7f137e5d81230292a07fc0332310d6ebd390a0ef80e19443c26c25e40c034161cca27f619cd1119850c12c7d904
      flags: 0
    RecentlyUsedScenePath-2:
      value: 2242470311464676080a05270622532f33190e233e27283d2827097ccfe53031e7f137e5d81230292a07fc0332310d6ebd390a0ef80e19443c26c25e40c03f0514d70ecc1fdf5109c51008d7
      flags: 0
    RecentlyUsedScenePath-3:
      value: 2242470311464676080a05270622532f33190e233e27283d2827097ccfe53031e7f137e5d81230292a07fc0332310d6ebd390a0ef80e19443c26c25e40c0381c04d61dfa4a992039d31811dec1189ff6dbdfc0f3
      flags: 0
    RecentlyUsedScenePath-4:
      value: 22424703114646680c031c2e15105c1518120b651f2b233e283a5210eae12639e1f333fbc1332d2f2d32ea2e17310f71e704001fef
      flags: 0
    RecentlyUsedScenePath-5:
      value: 22424703114646680e0b0227036c6b0502180a232d2468252320092a
      flags: 0
    RecentlyUsedScenePath-6:
      value: 22424703114646680e0b0227036c71190012146439262f2434
      flags: 0
    RecentlyUsedScenePath-7:
      value: 22424703114646680e0b0227036c6b0502180a232d246661633c133af6f9
      flags: 0
    RecentlyUsedScenePath-8:
      value: 22424703114646680e0b0227036c7d020319176439262f2434
      flags: 0
    RecentlyUsedScenePath-9:
      value: 22424703114646680e0b0227036c7d02031917192f2d28353e66313ce5e93a0be1e238eca92f31352d1b
      flags: 0
    vcSharedLogLevel:
      value: 0d5e400f0650
      flags: 0
  m_VCAutomaticAdd: 1
  m_VCDebugCom: 0
  m_VCDebugCmd: 0
  m_VCDebugOut: 0
  m_SemanticMergeMode: 2
  m_VCShowFailedCheckout: 1
  m_VCOverwriteFailedCheckoutAssets: 1
  m_VCProjectOverlayIcons: 1
  m_VCHierarchyOverlayIcons: 1
  m_VCOtherOverlayIcons: 1
  m_VCAllowAsyncUpdate: 1
