{
  "BurstVersion": "f95137a4-a8d7-47bb-ac81-4ce8830deb34",
  "Assemblies": [
    {
      "FullName": "Unity.Burst, Version=0.0.0.0, Culture=neutral, PublicKeyToken=null",
      "LastWriteTime": "2022-03-30T18:32:18.4159304Z"
    },
    {
      "FullName": "netstandard, Version=2.0.0.0, Culture=neutral, PublicKeyToken=cc7b13ffcd2ddd51",
      "LastWriteTime": "2021-05-25T11:05:50Z"
    },
    {
      "FullName": "mscorlib, Version=4.0.0.0, Culture=neutral, PublicKeyToken=b77a5c561934e089",
      "LastWriteTime": "2021-05-25T11:05:50Z"
    },
    {
      "FullName": "Unity.Collections, Version=0.0.0.0, Culture=neutral, PublicKeyToken=null",
      "LastWriteTime": "2022-03-30T18:32:20.531852Z"
    },
    {
      "FullName": "UnityEngine.CoreModule, Version=0.0.0.0, Culture=neutral, PublicKeyToken=null",
      "LastWriteTime": "2021-05-25T11:11:14Z"
    },
    {
      "FullName": "mscorlib, Version=2.0.0.0, Culture=neutral, PublicKeyToken=b77a5c561934e089",
      "LastWriteTime": "2021-05-25T11:05:50Z"
    },
    {
      "FullName": "Unity.Mathematics, Version=1.0.0.0, Culture=neutral, PublicKeyToken=null",
      "LastWriteTime": "2022-03-30T18:32:20.0617664Z"
    },
    {
      "FullName": "Unity.Burst.Unsafe, Version=4.0.5.0, Culture=neutral, PublicKeyToken=null",
      "LastWriteTime": "2021-05-17T23:45:48Z"
    },
    {
      "FullName": "System.Runtime, Version=4.0.0.0, Culture=neutral, PublicKeyToken=b03f5f7f11d50a3a",
      "LastWriteTime": "2021-05-25T11:05:50Z"
    }
  ],
  "Functions": [
    {
      "FullName": "Unity.Burst.Intrinsics.X86, Unity.Burst, Version=0.0.0.0, Culture=neutral, PublicKeyToken=null::DoGetCSRTrampoline()",
      "ModuleOptionsHash": 1809861571778145175,
      "ModuleHash": "7cece512c557b770ff59098a48ff3cb9",
      "LinkName": "CDCA4A5193BE5947",
      "AssemblyDependencyIndices": [
        0,
        1,
        2
      ]
    },
    {
      "FullName": "Unity.Burst.Intrinsics.X86, Unity.Burst, Version=0.0.0.0, Culture=neutral, PublicKeyToken=null::DoSetCSRTrampoline(System.Int32, mscorlib, Version=4.0.0.0, Culture=neutral, PublicKeyToken=b77a5c561934e089)",
      "ModuleOptionsHash": 1809861571778145175,
      "ModuleHash": "8b55a47e423ab0d8ed3d9b3357b478cc",
      "LinkName": "801E9A000BB37B05",
      "AssemblyDependencyIndices": [
        0,
        1,
        2
      ]
    },
    {
      "FullName": "Unity.Collections.xxHash3, Unity.Collections, Version=0.0.0.0, Culture=neutral, PublicKeyToken=null::_mono_to_burst_Hash64Long(System.Byte*, mscorlib, Version=4.0.0.0, Culture=neutral, PublicKeyToken=b77a5c561934e089|System.Byte*, mscorlib, Version=4.0.0.0, Culture=neutral, PublicKeyToken=b77a5c561934e089|System.Int64, mscorlib, Version=4.0.0.0, Culture=neutral, PublicKeyToken=b77a5c561934e089|System.Byte*, mscorlib, Version=4.0.0.0, Culture=neutral, PublicKeyToken=b77a5c561934e089|System.UInt64&, mscorlib, Version=4.0.0.0, Culture=neutral, PublicKeyToken=b77a5c561934e089)",
      "ModuleOptionsHash": 1809861571778145175,
      "ModuleHash": "f723e03e05c956444475a8f88d01ddbb",
      "LinkName": "C86228259FBD2D15",
      "AssemblyDependencyIndices": [
        3,
        1,
        2,
        0,
        4,
        5
      ]
    },
    {
      "FullName": "Unity.Collections.xxHash3, Unity.Collections, Version=0.0.0.0, Culture=neutral, PublicKeyToken=null::_mono_to_burst_Hash128Long(System.Byte*, mscorlib, Version=4.0.0.0, Culture=neutral, PublicKeyToken=b77a5c561934e089|System.Byte*, mscorlib, Version=4.0.0.0, Culture=neutral, PublicKeyToken=b77a5c561934e089|System.Int64, mscorlib, Version=4.0.0.0, Culture=neutral, PublicKeyToken=b77a5c561934e089|System.Byte*, mscorlib, Version=4.0.0.0, Culture=neutral, PublicKeyToken=b77a5c561934e089|Unity.Mathematics.uint4&, Unity.Mathematics, Version=1.0.0.0, Culture=neutral, PublicKeyToken=null)",
      "ModuleOptionsHash": 1809861571778145175,
      "ModuleHash": "5a4666d45f96aa7b1d4188367a730712",
      "LinkName": "652A50F98488BE6F",
      "AssemblyDependencyIndices": [
        3,
        1,
        2,
        6,
        0,
        4,
        5
      ]
    },
    {
      "FullName": "Unity.Jobs.IJobExtensions+JobStruct`1[[Unity.Collections.NativeQueueDisposeJob, Unity.Collections, Version=0.0.0.0, Culture=neutral, PublicKeyToken=null]], UnityEngine.CoreModule, Version=0.0.0.0, Culture=neutral, PublicKeyToken=null::Execute(Unity.Collections.NativeQueueDisposeJob&, Unity.Collections, Version=0.0.0.0, Culture=neutral, PublicKeyToken=null|System.IntPtr, mscorlib, Version=4.0.0.0, Culture=neutral, PublicKeyToken=b77a5c561934e089|System.IntPtr, mscorlib, Version=4.0.0.0, Culture=neutral, PublicKeyToken=b77a5c561934e089|Unity.Jobs.LowLevel.Unsafe.JobRanges&, UnityEngine.CoreModule, Version=0.0.0.0, Culture=neutral, PublicKeyToken=null|System.Int32, mscorlib, Version=4.0.0.0, Culture=neutral, PublicKeyToken=b77a5c561934e089)",
      "ModuleOptionsHash": 1809861571778145175,
      "ModuleHash": "81a5c1f78ba555db2c6d913d78d4ef37",
      "LinkName": "8F02018D2DAA4F36",
      "AssemblyDependencyIndices": [
        4,
        3,
        5,
        1,
        2,
        6,
        0,
        7,
        8
      ]
    },
    {
      "FullName": "Unity.Jobs.IJobExtensions+JobStruct`1[[Unity.Collections.NativeListDisposeJob, Unity.Collections, Version=0.0.0.0, Culture=neutral, PublicKeyToken=null]], UnityEngine.CoreModule, Version=0.0.0.0, Culture=neutral, PublicKeyToken=null::Execute(Unity.Collections.NativeListDisposeJob&, Unity.Collections, Version=0.0.0.0, Culture=neutral, PublicKeyToken=null|System.IntPtr, mscorlib, Version=4.0.0.0, Culture=neutral, PublicKeyToken=b77a5c561934e089|System.IntPtr, mscorlib, Version=4.0.0.0, Culture=neutral, PublicKeyToken=b77a5c561934e089|Unity.Jobs.LowLevel.Unsafe.JobRanges&, UnityEngine.CoreModule, Version=0.0.0.0, Culture=neutral, PublicKeyToken=null|System.Int32, mscorlib, Version=4.0.0.0, Culture=neutral, PublicKeyToken=b77a5c561934e089)",
      "ModuleOptionsHash": 1809861571778145175,
      "ModuleHash": "1736db93eb4f7f6c46c75e820096165b",
      "LinkName": "352B6D5D03F8F621",
      "AssemblyDependencyIndices": [
        4,
        3,
        5,
        1,
        2,
        6,
        0,
        7,
        8
      ]
    },
    {
      "FullName": "Unity.Collections.AllocatorManager+StackAllocator, Unity.Collections, Version=0.0.0.0, Culture=neutral, PublicKeyToken=null::Try(System.IntPtr, mscorlib, Version=4.0.0.0, Culture=neutral, PublicKeyToken=b77a5c561934e089|Unity.Collections.AllocatorManager+Block&, Unity.Collections, Version=0.0.0.0, Culture=neutral, PublicKeyToken=null)",
      "ModuleOptionsHash": 1809861571778145175,
      "ModuleHash": "5a5b5c5aae27f34a7739f85cee08bb1f",
      "LinkName": "31D71C750A9E4345",
      "AssemblyDependencyIndices": [
        3,
        1,
        2,
        0
      ]
    },
    {
      "FullName": "Unity.Collections.AllocatorManager+SlabAllocator, Unity.Collections, Version=0.0.0.0, Culture=neutral, PublicKeyToken=null::Try(System.IntPtr, mscorlib, Version=4.0.0.0, Culture=neutral, PublicKeyToken=b77a5c561934e089|Unity.Collections.AllocatorManager+Block&, Unity.Collections, Version=0.0.0.0, Culture=neutral, PublicKeyToken=null)",
      "ModuleOptionsHash": 1809861571778145175,
      "ModuleHash": "30d0014544fb39ec2b1f2e2e82d2d7a8",
      "LinkName": "8CC3C64CA4A3FEDE",
      "AssemblyDependencyIndices": [
        3,
        1,
        2,
        0,
        4,
        5,
        6
      ]
    },
    {
      "FullName": "Unity.Jobs.IJobExtensions+JobStruct`1[[Unity.Collections.NativeReferenceDisposeJob, Unity.Collections, Version=0.0.0.0, Culture=neutral, PublicKeyToken=null]], UnityEngine.CoreModule, Version=0.0.0.0, Culture=neutral, PublicKeyToken=null::Execute(Unity.Collections.NativeReferenceDisposeJob&, Unity.Collections, Version=0.0.0.0, Culture=neutral, PublicKeyToken=null|System.IntPtr, mscorlib, Version=4.0.0.0, Culture=neutral, PublicKeyToken=b77a5c561934e089|System.IntPtr, mscorlib, Version=4.0.0.0, Culture=neutral, PublicKeyToken=b77a5c561934e089|Unity.Jobs.LowLevel.Unsafe.JobRanges&, UnityEngine.CoreModule, Version=0.0.0.0, Culture=neutral, PublicKeyToken=null|System.Int32, mscorlib, Version=4.0.0.0, Culture=neutral, PublicKeyToken=b77a5c561934e089)",
      "ModuleOptionsHash": 1809861571778145175,
      "ModuleHash": "9fd8d62d06dfe1f2ed9c3f1abd27a124",
      "LinkName": "703CA6DADE3415F0",
      "AssemblyDependencyIndices": [
        4,
        3,
        5,
        1,
        2,
        6,
        0,
        7,
        8
      ]
    },
    {
      "FullName": "Unity.Jobs.IJobExtensions+JobStruct`1[[Unity.Collections.NativeStream+ConstructJobList, Unity.Collections, Version=0.0.0.0, Culture=neutral, PublicKeyToken=null]], UnityEngine.CoreModule, Version=0.0.0.0, Culture=neutral, PublicKeyToken=null::Execute(Unity.Collections.NativeStream+ConstructJobList&, Unity.Collections, Version=0.0.0.0, Culture=neutral, PublicKeyToken=null|System.IntPtr, mscorlib, Version=4.0.0.0, Culture=neutral, PublicKeyToken=b77a5c561934e089|System.IntPtr, mscorlib, Version=4.0.0.0, Culture=neutral, PublicKeyToken=b77a5c561934e089|Unity.Jobs.LowLevel.Unsafe.JobRanges&, UnityEngine.CoreModule, Version=0.0.0.0, Culture=neutral, PublicKeyToken=null|System.Int32, mscorlib, Version=4.0.0.0, Culture=neutral, PublicKeyToken=b77a5c561934e089)",
      "ModuleOptionsHash": 1809861571778145175,
      "ModuleHash": "a626bb95d3a0b3190d9f7002ca78f4d1",
      "LinkName": "846F65225A066FD6",
      "AssemblyDependencyIndices": [
        4,
        3,
        5,
        1,
        2,
        6,
        0,
        7,
        8
      ]
    },
    {
      "FullName": "Unity.Jobs.IJobExtensions+JobStruct`1[[Unity.Collections.NativeStream+ConstructJob, Unity.Collections, Version=0.0.0.0, Culture=neutral, PublicKeyToken=null]], UnityEngine.CoreModule, Version=0.0.0.0, Culture=neutral, PublicKeyToken=null::Execute(Unity.Collections.NativeStream+ConstructJob&, Unity.Collections, Version=0.0.0.0, Culture=neutral, PublicKeyToken=null|System.IntPtr, mscorlib, Version=4.0.0.0, Culture=neutral, PublicKeyToken=b77a5c561934e089|System.IntPtr, mscorlib, Version=4.0.0.0, Culture=neutral, PublicKeyToken=b77a5c561934e089|Unity.Jobs.LowLevel.Unsafe.JobRanges&, UnityEngine.CoreModule, Version=0.0.0.0, Culture=neutral, PublicKeyToken=null|System.Int32, mscorlib, Version=4.0.0.0, Culture=neutral, PublicKeyToken=b77a5c561934e089)",
      "ModuleOptionsHash": 1809861571778145175,
      "ModuleHash": "88d85a09b52a5f27b341d35cb70dd056",
      "LinkName": "1F3827F16D435181",
      "AssemblyDependencyIndices": [
        4,
        3,
        5,
        1,
        2,
        6,
        0,
        7,
        8
      ]
    },
    {
      "FullName": "Unity.Jobs.IJobExtensions+JobStruct`1[[Unity.Collections.LowLevel.Unsafe.UnsafeHashMapDataDisposeJob, Unity.Collections, Version=0.0.0.0, Culture=neutral, PublicKeyToken=null]], UnityEngine.CoreModule, Version=0.0.0.0, Culture=neutral, PublicKeyToken=null::Execute(Unity.Collections.LowLevel.Unsafe.UnsafeHashMapDataDisposeJob&, Unity.Collections, Version=0.0.0.0, Culture=neutral, PublicKeyToken=null|System.IntPtr, mscorlib, Version=4.0.0.0, Culture=neutral, PublicKeyToken=b77a5c561934e089|System.IntPtr, mscorlib, Version=4.0.0.0, Culture=neutral, PublicKeyToken=b77a5c561934e089|Unity.Jobs.LowLevel.Unsafe.JobRanges&, UnityEngine.CoreModule, Version=0.0.0.0, Culture=neutral, PublicKeyToken=null|System.Int32, mscorlib, Version=4.0.0.0, Culture=neutral, PublicKeyToken=b77a5c561934e089)",
      "ModuleOptionsHash": 1809861571778145175,
      "ModuleHash": "05e6eeb0832e18b579d6c17b1ef5435a",
      "LinkName": "C0BB42F31A3089F2",
      "AssemblyDependencyIndices": [
        4,
        3,
        5,
        1,
        2,
        6,
        0,
        7,
        8
      ]
    },
    {
      "FullName": "Unity.Jobs.IJobExtensions+JobStruct`1[[Unity.Collections.LowLevel.Unsafe.UnsafeHashMapDisposeJob, Unity.Collections, Version=0.0.0.0, Culture=neutral, PublicKeyToken=null]], UnityEngine.CoreModule, Version=0.0.0.0, Culture=neutral, PublicKeyToken=null::Execute(Unity.Collections.LowLevel.Unsafe.UnsafeHashMapDisposeJob&, Unity.Collections, Version=0.0.0.0, Culture=neutral, PublicKeyToken=null|System.IntPtr, mscorlib, Version=4.0.0.0, Culture=neutral, PublicKeyToken=b77a5c561934e089|System.IntPtr, mscorlib, Version=4.0.0.0, Culture=neutral, PublicKeyToken=b77a5c561934e089|Unity.Jobs.LowLevel.Unsafe.JobRanges&, UnityEngine.CoreModule, Version=0.0.0.0, Culture=neutral, PublicKeyToken=null|System.Int32, mscorlib, Version=4.0.0.0, Culture=neutral, PublicKeyToken=b77a5c561934e089)",
      "ModuleOptionsHash": 1809861571778145175,
      "ModuleHash": "a44011214bbb958f343f9f62e9a15974",
      "LinkName": "0AFB48C3B9CA6ECF",
      "AssemblyDependencyIndices": [
        4,
        3,
        5,
        1,
        2,
        6,
        0,
        7,
        8
      ]
    },
    {
      "FullName": "Unity.Jobs.IJobExtensions+JobStruct`1[[Unity.Collections.LowLevel.Unsafe.UnsafeDisposeJob, Unity.Collections, Version=0.0.0.0, Culture=neutral, PublicKeyToken=null]], UnityEngine.CoreModule, Version=0.0.0.0, Culture=neutral, PublicKeyToken=null::Execute(Unity.Collections.LowLevel.Unsafe.UnsafeDisposeJob&, Unity.Collections, Version=0.0.0.0, Culture=neutral, PublicKeyToken=null|System.IntPtr, mscorlib, Version=4.0.0.0, Culture=neutral, PublicKeyToken=b77a5c561934e089|System.IntPtr, mscorlib, Version=4.0.0.0, Culture=neutral, PublicKeyToken=b77a5c561934e089|Unity.Jobs.LowLevel.Unsafe.JobRanges&, UnityEngine.CoreModule, Version=0.0.0.0, Culture=neutral, PublicKeyToken=null|System.Int32, mscorlib, Version=4.0.0.0, Culture=neutral, PublicKeyToken=b77a5c561934e089)",
      "ModuleOptionsHash": 1809861571778145175,
      "ModuleHash": "57b65f63d750a7a9c1ef9b85e00d8fb5",
      "LinkName": "5AAE3265C3BCB248",
      "AssemblyDependencyIndices": [
        4,
        3,
        5,
        1,
        2,
        6,
        0,
        7,
        8
      ]
    },
    {
      "FullName": "Unity.Jobs.IJobExtensions+JobStruct`1[[Unity.Collections.LowLevel.Unsafe.UnsafeStream+DisposeJob, Unity.Collections, Version=0.0.0.0, Culture=neutral, PublicKeyToken=null]], UnityEngine.CoreModule, Version=0.0.0.0, Culture=neutral, PublicKeyToken=null::Execute(Unity.Collections.LowLevel.Unsafe.UnsafeStream+DisposeJob&, Unity.Collections, Version=0.0.0.0, Culture=neutral, PublicKeyToken=null|System.IntPtr, mscorlib, Version=4.0.0.0, Culture=neutral, PublicKeyToken=b77a5c561934e089|System.IntPtr, mscorlib, Version=4.0.0.0, Culture=neutral, PublicKeyToken=b77a5c561934e089|Unity.Jobs.LowLevel.Unsafe.JobRanges&, UnityEngine.CoreModule, Version=0.0.0.0, Culture=neutral, PublicKeyToken=null|System.Int32, mscorlib, Version=4.0.0.0, Culture=neutral, PublicKeyToken=b77a5c561934e089)",
      "ModuleOptionsHash": 1809861571778145175,
      "ModuleHash": "2d600496405090a7b15f12273ff8a730",
      "LinkName": "A8134E26EAC44A70",
      "AssemblyDependencyIndices": [
        4,
        3,
        5,
        1,
        2,
        6,
        0,
        7,
        8
      ]
    },
    {
      "FullName": "Unity.Jobs.IJobExtensions+JobStruct`1[[Unity.Collections.LowLevel.Unsafe.UnsafeStream+ConstructJobList, Unity.Collections, Version=0.0.0.0, Culture=neutral, PublicKeyToken=null]], UnityEngine.CoreModule, Version=0.0.0.0, Culture=neutral, PublicKeyToken=null::Execute(Unity.Collections.LowLevel.Unsafe.UnsafeStream+ConstructJobList&, Unity.Collections, Version=0.0.0.0, Culture=neutral, PublicKeyToken=null|System.IntPtr, mscorlib, Version=4.0.0.0, Culture=neutral, PublicKeyToken=b77a5c561934e089|System.IntPtr, mscorlib, Version=4.0.0.0, Culture=neutral, PublicKeyToken=b77a5c561934e089|Unity.Jobs.LowLevel.Unsafe.JobRanges&, UnityEngine.CoreModule, Version=0.0.0.0, Culture=neutral, PublicKeyToken=null|System.Int32, mscorlib, Version=4.0.0.0, Culture=neutral, PublicKeyToken=b77a5c561934e089)",
      "ModuleOptionsHash": 1809861571778145175,
      "ModuleHash": "ff5c523ebc73d77e989da095c57e5762",
      "LinkName": "18F4EDFD51FD6159",
      "AssemblyDependencyIndices": [
        4,
        3,
        5,
        1,
        2,
        6,
        0,
        7,
        8
      ]
    },
    {
      "FullName": "Unity.Jobs.IJobExtensions+JobStruct`1[[Unity.Collections.LowLevel.Unsafe.UnsafeStream+ConstructJob, Unity.Collections, Version=0.0.0.0, Culture=neutral, PublicKeyToken=null]], UnityEngine.CoreModule, Version=0.0.0.0, Culture=neutral, PublicKeyToken=null::Execute(Unity.Collections.LowLevel.Unsafe.UnsafeStream+ConstructJob&, Unity.Collections, Version=0.0.0.0, Culture=neutral, PublicKeyToken=null|System.IntPtr, mscorlib, Version=4.0.0.0, Culture=neutral, PublicKeyToken=b77a5c561934e089|System.IntPtr, mscorlib, Version=4.0.0.0, Culture=neutral, PublicKeyToken=b77a5c561934e089|Unity.Jobs.LowLevel.Unsafe.JobRanges&, UnityEngine.CoreModule, Version=0.0.0.0, Culture=neutral, PublicKeyToken=null|System.Int32, mscorlib, Version=4.0.0.0, Culture=neutral, PublicKeyToken=b77a5c561934e089)",
      "ModuleOptionsHash": 1809861571778145175,
      "ModuleHash": "7b084359a2455cb6160ebf8f63f08519",
      "LinkName": "EC65C6FB1FDE45E6",
      "AssemblyDependencyIndices": [
        4,
        3,
        5,
        1,
        2,
        6,
        0,
        7,
        8
      ]
    },
    {
      "FullName": "Unity.Collections.RewindableAllocator, Unity.Collections, Version=0.0.0.0, Culture=neutral, PublicKeyToken=null::Try(System.IntPtr, mscorlib, Version=4.0.0.0, Culture=neutral, PublicKeyToken=b77a5c561934e089|Unity.Collections.AllocatorManager+Block&, Unity.Collections, Version=0.0.0.0, Culture=neutral, PublicKeyToken=null)",
      "ModuleOptionsHash": 1809861571778145175,
      "ModuleHash": "2abe82a31d913fa0829fe43cef6c03fa",
      "LinkName": "806B2D5E79A7443E",
      "AssemblyDependencyIndices": [
        3,
        1,
        2,
        0,
        6,
        4,
        5,
        7,
        8
      ]
    }
  ]
}